traitement_compas/simulation/qsim/traitement_compas.msim.vcd
$comment
	File created using the following command:
		vcd file traitement_compas.msim.vcd -direction
$end
$date
	Sun Nov 12 17:39:55 2023
$end
$version
	ModelSim Version 10.5b
$end
$timescale
	1ps
$end

$scope module traitement_compas_vhd_vec_tst $end
$var wire 1 ! clk_50MHz $end
$var wire 1 " continu $end
$var wire 1 # data_compas [8] $end
$var wire 1 $ data_compas [7] $end
$var wire 1 % data_compas [6] $end
$var wire 1 & data_compas [5] $end
$var wire 1 ' data_compas [4] $end
$var wire 1 ( data_compas [3] $end
$var wire 1 ) data_compas [2] $end
$var wire 1 * data_compas [1] $end
$var wire 1 + data_compas [0] $end
$var wire 1 , data_valid $end
$var wire 1 - in_pwm $end
$var wire 1 . RAZ_N $end
$var wire 1 / start_stop $end

$scope module i1 $end
$var wire 1 0 gnd $end
$var wire 1 1 vcc $end
$var wire 1 2 unknown $end
$var wire 1 3 devoe $end
$var wire 1 4 devclrn $end
$var wire 1 5 devpor $end
$var wire 1 6 ww_devoe $end
$var wire 1 7 ww_devclrn $end
$var wire 1 8 ww_devpor $end
$var wire 1 9 ww_data_valid $end
$var wire 1 : ww_start_stop $end
$var wire 1 ; ww_continu $end
$var wire 1 < ww_clk_50MHz $end
$var wire 1 = ww_RAZ_N $end
$var wire 1 > ww_in_pwm $end
$var wire 1 ? ww_data_compas [8] $end
$var wire 1 @ ww_data_compas [7] $end
$var wire 1 A ww_data_compas [6] $end
$var wire 1 B ww_data_compas [5] $end
$var wire 1 C ww_data_compas [4] $end
$var wire 1 D ww_data_compas [3] $end
$var wire 1 E ww_data_compas [2] $end
$var wire 1 F ww_data_compas [1] $end
$var wire 1 G ww_data_compas [0] $end
$var wire 1 H \inst6|e_signal_compteur~clkctrl_INCLK_bus\ [3] $end
$var wire 1 I \inst6|e_signal_compteur~clkctrl_INCLK_bus\ [2] $end
$var wire 1 J \inst6|e_signal_compteur~clkctrl_INCLK_bus\ [1] $end
$var wire 1 K \inst6|e_signal_compteur~clkctrl_INCLK_bus\ [0] $end
$var wire 1 L \data_valid~output_o\ $end
$var wire 1 M \data_compas[8]~output_o\ $end
$var wire 1 N \data_compas[7]~output_o\ $end
$var wire 1 O \data_compas[6]~output_o\ $end
$var wire 1 P \data_compas[5]~output_o\ $end
$var wire 1 Q \data_compas[4]~output_o\ $end
$var wire 1 R \data_compas[3]~output_o\ $end
$var wire 1 S \data_compas[2]~output_o\ $end
$var wire 1 T \data_compas[1]~output_o\ $end
$var wire 1 U \data_compas[0]~output_o\ $end
$var wire 1 V \start_stop~input_o\ $end
$var wire 1 W \continu~input_o\ $end
$var wire 1 X \inst|data_valid~0_combout\ $end
$var wire 1 Y \clk_50MHz~input_o\ $end
$var wire 1 Z \RAZ_N~input_o\ $end
$var wire 1 [ \inst5|count[0]~32_combout\ $end
$var wire 1 \ \inst5|count[0]~34_combout\ $end
$var wire 1 ] \inst5|count[0]~31_combout\ $end
$var wire 1 ^ \inst5|count[0]~_emulated_q\ $end
$var wire 1 _ \inst5|count[0]~33_combout\ $end
$var wire 1 ` \inst5|count[1]~37_combout\ $end
$var wire 1 a \inst5|tmp~1_combout\ $end
$var wire 1 b \inst5|count[1]~38\ $end
$var wire 1 c \inst5|count[2]~39_combout\ $end
$var wire 1 d \inst5|count[2]~40\ $end
$var wire 1 e \inst5|count[3]~41_combout\ $end
$var wire 1 f \inst5|count[3]~42\ $end
$var wire 1 g \inst5|count[4]~43_combout\ $end
$var wire 1 h \inst5|count[4]~44\ $end
$var wire 1 i \inst5|count[5]~45_combout\ $end
$var wire 1 j \inst5|count[5]~46\ $end
$var wire 1 k \inst5|count[6]~47_combout\ $end
$var wire 1 l \inst5|count[6]~48\ $end
$var wire 1 m \inst5|count[7]~49_combout\ $end
$var wire 1 n \inst5|count[7]~50\ $end
$var wire 1 o \inst5|count[8]~51_combout\ $end
$var wire 1 p \inst5|count[8]~52\ $end
$var wire 1 q \inst5|count[9]~53_combout\ $end
$var wire 1 r \inst5|count[9]~54\ $end
$var wire 1 s \inst5|count[10]~55_combout\ $end
$var wire 1 t \inst5|count[10]~56\ $end
$var wire 1 u \inst5|count[11]~57_combout\ $end
$var wire 1 v \inst5|count[11]~58\ $end
$var wire 1 w \inst5|count[12]~59_combout\ $end
$var wire 1 x \inst5|count[12]~60\ $end
$var wire 1 y \inst5|count[13]~61_combout\ $end
$var wire 1 z \inst5|count[13]~62\ $end
$var wire 1 { \inst5|count[14]~63_combout\ $end
$var wire 1 | \inst5|count[14]~64\ $end
$var wire 1 } \inst5|count[15]~65_combout\ $end
$var wire 1 ~ \inst5|count[15]~66\ $end
$var wire 1 !! \inst5|count[16]~67_combout\ $end
$var wire 1 "! \inst5|count[16]~68\ $end
$var wire 1 #! \inst5|count[17]~69_combout\ $end
$var wire 1 $! \inst5|count[17]~70\ $end
$var wire 1 %! \inst5|count[18]~71_combout\ $end
$var wire 1 &! \inst5|count[18]~72\ $end
$var wire 1 '! \inst5|count[19]~73_combout\ $end
$var wire 1 (! \inst5|count[19]~74\ $end
$var wire 1 )! \inst5|count[20]~75_combout\ $end
$var wire 1 *! \inst5|count[20]~76\ $end
$var wire 1 +! \inst5|count[21]~77_combout\ $end
$var wire 1 ,! \inst5|count[21]~78\ $end
$var wire 1 -! \inst5|count[22]~79_combout\ $end
$var wire 1 .! \inst5|count[22]~80\ $end
$var wire 1 /! \inst5|count[23]~81_combout\ $end
$var wire 1 0! \inst5|count[23]~82\ $end
$var wire 1 1! \inst5|count[24]~83_combout\ $end
$var wire 1 2! \inst5|count[24]~84\ $end
$var wire 1 3! \inst5|count[25]~85_combout\ $end
$var wire 1 4! \inst5|count[25]~86\ $end
$var wire 1 5! \inst5|count[26]~87_combout\ $end
$var wire 1 6! \inst5|count[26]~88\ $end
$var wire 1 7! \inst5|count[27]~89_combout\ $end
$var wire 1 8! \inst5|count[27]~90\ $end
$var wire 1 9! \inst5|count[28]~91_combout\ $end
$var wire 1 :! \inst5|Equal0~8_combout\ $end
$var wire 1 ;! \inst5|count[28]~92\ $end
$var wire 1 <! \inst5|count[29]~93_combout\ $end
$var wire 1 =! \inst5|count[29]~94\ $end
$var wire 1 >! \inst5|count[30]~95_combout\ $end
$var wire 1 ?! \inst5|count[30]~96\ $end
$var wire 1 @! \inst5|count[31]~97_combout\ $end
$var wire 1 A! \inst5|Equal0~9_combout\ $end
$var wire 1 B! \inst5|Equal0~2_combout\ $end
$var wire 1 C! \inst5|Equal0~0_combout\ $end
$var wire 1 D! \inst5|Equal0~1_combout\ $end
$var wire 1 E! \inst5|Equal0~3_combout\ $end
$var wire 1 F! \inst5|Equal0~4_combout\ $end
$var wire 1 G! \inst5|Equal0~5_combout\ $end
$var wire 1 H! \inst5|Equal0~6_combout\ $end
$var wire 1 I! \inst5|Equal0~7_combout\ $end
$var wire 1 J! \inst5|Equal0~10_combout\ $end
$var wire 1 K! \inst5|tmp~0_combout\ $end
$var wire 1 L! \inst5|tmp~combout\ $end
$var wire 1 M! \in_pwm~input_o\ $end
$var wire 1 N! \inst6|e_signal_compteur~combout\ $end
$var wire 1 O! \inst6|e_signal_compteur~clkctrl_outclk\ $end
$var wire 1 P! \inst1|angle_front[0]~24_combout\ $end
$var wire 1 Q! \inst1|compteur_out_angle[8]~0_combout\ $end
$var wire 1 R! \inst1|angle_front[1]~8_combout\ $end
$var wire 1 S! \inst1|angle_front[1]~9\ $end
$var wire 1 T! \inst1|angle_front[2]~10_combout\ $end
$var wire 1 U! \inst1|angle_front[2]~11\ $end
$var wire 1 V! \inst1|angle_front[3]~12_combout\ $end
$var wire 1 W! \inst1|angle_front[3]~13\ $end
$var wire 1 X! \inst1|angle_front[4]~14_combout\ $end
$var wire 1 Y! \inst1|angle_front[4]~15\ $end
$var wire 1 Z! \inst1|angle_front[5]~16_combout\ $end
$var wire 1 [! \inst1|angle_front[5]~17\ $end
$var wire 1 \! \inst1|angle_front[6]~18_combout\ $end
$var wire 1 ]! \inst1|angle_front[6]~19\ $end
$var wire 1 ^! \inst1|angle_front[7]~20_combout\ $end
$var wire 1 _! \inst1|angle_front[7]~21\ $end
$var wire 1 `! \inst1|angle_front[8]~22_combout\ $end
$var wire 1 a! \inst|data_compas[8]~0_combout\ $end
$var wire 1 b! \inst|data_compas[7]~1_combout\ $end
$var wire 1 c! \inst|data_compas[6]~2_combout\ $end
$var wire 1 d! \inst|data_compas[5]~3_combout\ $end
$var wire 1 e! \inst|data_compas[4]~4_combout\ $end
$var wire 1 f! \inst|data_compas[3]~5_combout\ $end
$var wire 1 g! \inst|data_compas[2]~6_combout\ $end
$var wire 1 h! \inst|data_compas[1]~7_combout\ $end
$var wire 1 i! \inst|data_compas[0]~8_combout\ $end
$var wire 1 j! \inst1|angle_front\ [8] $end
$var wire 1 k! \inst1|angle_front\ [7] $end
$var wire 1 l! \inst1|angle_front\ [6] $end
$var wire 1 m! \inst1|angle_front\ [5] $end
$var wire 1 n! \inst1|angle_front\ [4] $end
$var wire 1 o! \inst1|angle_front\ [3] $end
$var wire 1 p! \inst1|angle_front\ [2] $end
$var wire 1 q! \inst1|angle_front\ [1] $end
$var wire 1 r! \inst1|angle_front\ [0] $end
$var wire 1 s! \inst5|count\ [31] $end
$var wire 1 t! \inst5|count\ [30] $end
$var wire 1 u! \inst5|count\ [29] $end
$var wire 1 v! \inst5|count\ [28] $end
$var wire 1 w! \inst5|count\ [27] $end
$var wire 1 x! \inst5|count\ [26] $end
$var wire 1 y! \inst5|count\ [25] $end
$var wire 1 z! \inst5|count\ [24] $end
$var wire 1 {! \inst5|count\ [23] $end
$var wire 1 |! \inst5|count\ [22] $end
$var wire 1 }! \inst5|count\ [21] $end
$var wire 1 ~! \inst5|count\ [20] $end
$var wire 1 !" \inst5|count\ [19] $end
$var wire 1 "" \inst5|count\ [18] $end
$var wire 1 #" \inst5|count\ [17] $end
$var wire 1 $" \inst5|count\ [16] $end
$var wire 1 %" \inst5|count\ [15] $end
$var wire 1 &" \inst5|count\ [14] $end
$var wire 1 '" \inst5|count\ [13] $end
$var wire 1 (" \inst5|count\ [12] $end
$var wire 1 )" \inst5|count\ [11] $end
$var wire 1 *" \inst5|count\ [10] $end
$var wire 1 +" \inst5|count\ [9] $end
$var wire 1 ," \inst5|count\ [8] $end
$var wire 1 -" \inst5|count\ [7] $end
$var wire 1 ." \inst5|count\ [6] $end
$var wire 1 /" \inst5|count\ [5] $end
$var wire 1 0" \inst5|count\ [4] $end
$var wire 1 1" \inst5|count\ [3] $end
$var wire 1 2" \inst5|count\ [2] $end
$var wire 1 3" \inst5|count\ [1] $end
$var wire 1 4" \inst5|count\ [0] $end
$var wire 1 5" \inst1|compteur_out_angle\ [8] $end
$var wire 1 6" \inst1|compteur_out_angle\ [7] $end
$var wire 1 7" \inst1|compteur_out_angle\ [6] $end
$var wire 1 8" \inst1|compteur_out_angle\ [5] $end
$var wire 1 9" \inst1|compteur_out_angle\ [4] $end
$var wire 1 :" \inst1|compteur_out_angle\ [3] $end
$var wire 1 ;" \inst1|compteur_out_angle\ [2] $end
$var wire 1 <" \inst1|compteur_out_angle\ [1] $end
$var wire 1 =" \inst1|compteur_out_angle\ [0] $end
$var wire 1 >" \inst5|ALT_INV_count[0]~31_combout\ $end
$var wire 1 ?" \inst5|ALT_INV_tmp~1_combout\ $end
$upscope $end
$upscope $end
$enddefinitions $end
#0
$dumpvars
1!
0"
0,
0-
0.
1/
00
11
x2
13
14
15
16
17
18
09
1:
0;
1<
0=
0>
0L
0M
0N
0O
0P
0Q
0R
0S
0T
0U
xV
xW
xX
xY
xZ
x[
x\
x]
0^
x_
x`
xa
xb
xc
xd
xe
xf
xg
xh
xi
xj
xk
xl
xm
xn
xo
xp
xq
xr
xs
xt
xu
xv
xw
xx
xy
xz
x{
x|
x}
x~
x!!
x"!
x#!
x$!
x%!
x&!
x'!
x(!
x)!
x*!
x+!
x,!
x-!
x.!
x/!
x0!
x1!
x2!
x3!
x4!
x5!
x6!
x7!
x8!
x9!
x:!
x;!
x<!
x=!
x>!
x?!
x@!
xA!
xB!
xC!
xD!
xE!
xF!
xG!
xH!
xI!
xJ!
xK!
xL!
xM!
xN!
xO!
1P!
xQ!
xR!
xS!
xT!
xU!
xV!
xW!
xX!
xY!
xZ!
x[!
x\!
x]!
x^!
x_!
x`!
0a!
0b!
0c!
0d!
0e!
0f!
xg!
0h!
0i!
x>"
x?"
0?
0@
0A
0B
0C
0D
0E
0F
0G
0j!
0k!
0l!
0m!
0n!
0o!
0p!
0q!
0r!
0s!
0t!
0u!
0v!
0w!
0x!
0y!
0z!
0{!
0|!
0}!
0~!
0!"
0""
0#"
0$"
0%"
0&"
0'"
0("
0)"
0*"
0+"
0,"
0-"
0."
0/"
00"
01"
02"
03"
x4"
05"
06"
07"
08"
09"
0:"
0;"
0<"
0="
1H
1I
1J
xK
0#
0$
0%
0&
0'
0(
0)
0*
0+
$end
#514
1V
1Y
#565
0E!
0D!
#654
0[!
#660
0b
#661
0S!
0$!
#662
0W!
#663
0r
0n
#665
04!
00!
0~
0z
0f
#666
0=!
0(!
0v
#667
08!
0j
#668
0,!
#669
0_!
#679
0W
#681
0Z
0M!
#712
1]!
#718
1d
#719
1&!
1U!
#720
1Y!
#721
1p
1t
#723
0R!
1h
1|
1"!
12!
16!
#724
1x
1*!
1?!
#725
1l
1;!
#726
1.!
#843
0g!
#884
0F!
#923
1H!
#998
1B!
#1006
0C!
#1091
0\!
#1097
0c
#1098
0%!
0T!
#1099
0X!
#1100
0o
0s
#1102
0g
0{
0!!
01!
05!
#1103
0w
0)!
0>!
#1104
0k
09!
#1105
0-!
#1106
0`!
#1134
1:!
#1149
0^!
#1155
0e
#1156
0V!
0'!
#1157
0Z!
#1158
0u
0q
#1160
07!
03!
0#!
0}
0i
#1161
0@!
0+!
0y
#1162
0<!
0m
#1163
0/!
#1225
xO!
#1316
0N!
0K
#1320
1G!
#1331
0J!
#1733
1I!
#2127
1K!
#2334
0Q!
#2340
0a
1?"
#2482
0X
#2541
0O!
#2997
0]
1>"
#3320
xS
xE
x)
#3343
xL
x9
x,
#4118
0S
0E
0)
#5794
0L
09
0,
#10000
1-
1>
#10516
1M!
#11171
xN!
xK
#12335
xO!
#20000
0-
0>
#20681
0M!
#21316
0N!
0K
#22541
0O!
#30000
1-
1>
#30516
1M!
#31171
xN!
xK
#32335
xO!
#40000
0-
0>
#40681
0M!
#41316
0N!
0K
#42541
0O!
#50000
1-
1>
#50516
1M!
#51171
xN!
xK
#52335
xO!
#60000
0-
0>
#60681
0M!
#61316
0N!
0K
#62541
0O!
#70000
1-
1>
#70516
1M!
#71171
xN!
xK
#72335
xO!
#80000
0-
0>
#80681
0M!
#81316
0N!
0K
#82541
0O!
#90000
1-
1>
#90516
1M!
#91171
xN!
xK
#92335
xO!
